{
    "parking": {
	"tag_name": "asset_id",
	"constants": {
	    "33854": {"assetName": "Parking Slot 1", "assetSerial": "SNV086XH00170009F", "assetTypeName": "parking", "assetSubTypeName": "parking", "address": "Νεαπόλεως 27, 153 41, Αγία Παρασκευή", "pointDto": {"latitude": 37.9965315437678, "longitude": 23.8148307190408}, "assignedPoi": {"address": "Νεαπόλεως 27, 153 41, Αγία Παρασκευή", "poiId": 34350, "poiName": "Parking Slot 1"}},
	    "33855": {"assetName": "Parking Slot 2", "assetSerial": "SNV086XH001700044", "assetTypeName": "parking", "assetSubTypeName": "parking", "address": "Νεαπόλεως 27, 153 41, Αγία Παρασκευή", "pointDto": {"latitude": 37.9965373214334, "longitude": 23.8147876046405}, "assignedPoi": {"address": "Νεαπόλεως 27, 153 41, Αγία Παρασκευή", "poiId": 34351, "poiName": "Parking Slot 2" }},
	    "33856": {"assetName": "Parking Slot 3", "assetSerial": "SNV086XH001700037", "assetTypeName": "parking", "assetSubTypeName": "parking", "address": "Νεαπόλεως 27, 153 41, Αγία Παρασκευή", "pointDto": {"latitude": 37.9965402946085, "longitude": 23.8147642738671}, "assignedPoi": {"address": "Νεαπόλεως 27, 153 41, Αγία Παρασκευή", "poiId": 34352, "poiName": "Parking Slot 3"}},
	    "33857": {"assetName": "Parking Slot 4", "assetSerial": "SNV086XH0017000C2", "assetTypeName": "parking", "assetSubTypeName": "parking", "address": "Νεαπόλεως 27, 153 41, Αγία Παρασκευή", "pointDto": {"latitude": 37.9965388900629, "longitude": 23.814726269965}, "assignedPoi": {"address": "Νεαπόλεως 27, 153 41, Αγία Παρασκευή", "poiId": 34353, "poiName": "Parking Slot 4"}},
	    "33858": {"assetName": "Parking Slot 5", "assetSerial": "SNV086XH00170009D", "assetTypeName": "parking", "assetSubTypeName": "parking", "address": "Νεαπόλεως 27, 153 41, Αγία Παρασκευή", "pointDto": {"latitude": 37.9965348407552, "longitude": 23.8146928609312}, "assignedPoi": {"address": "Νεαπόλεως 27, 153 41, Αγία Παρασκευή", "poiId": 34354, "poiName": "Parking Slot 5"}},
	    "33859": {"assetName": "Parking Slot 6", "assetSerial": "SNV086XH00170000F", "assetTypeName": "parking", "assetSubTypeName": "parking", "address": "Νεαπόλεως 27, 153 41, Αγία Παρασκευή", "pointDto": {"latitude": 37.9965373914042, "longitude": 23.8146533684621}, "assignedPoi": {"address": "Νεαπόλεως 27, 153 41, Αγία Παρασκευή", "poiId": 34355, "poiName": "Parking Slot 6"}},
	    "33860": {"assetName": "Parking Slot 7", "assetSerial": "SNV086XH00170005C", "assetTypeName": "parking", "assetSubTypeName": "parking", "address": "Νεαπόλεως 27, 153 41, Αγία Παρασκευή", "pointDto": {"latitude": 37.9965442250496, "longitude": 23.8146438366572}, "assignedPoi": {"address": "Νεαπόλεως 27, 153 41, Αγία Παρασκευή", "poiId": 34356, "poiName": "Parking Slot 7"}},
	    "33861": {"assetName": "Parking Slot 8", "assetSerial": "SNV086XH00170009C", "assetTypeName": "parking", "assetSubTypeName": "parking", "address": "Νεαπόλεως 27, 153 41, Αγία Παρασκευή", "pointDto": {"latitude": 37.9965334162164, "longitude": 23.8146181495603}, "assignedPoi": {"address": "Νεαπόλεως 27, 153 41, Αγία Παρασκευή", "poiId": 34357, "poiName": "Parking Slot 8"}},
	    "33862": {"assetName": "Parking Slot 9", "assetSerial": "SNV086XH00170001F", "assetTypeName": "parking", "assetSubTypeName": "parking", "address": "Νεαπόλεως 27, 153 41, Αγία Παρασκευή", "pointDto": {"latitude": 37.9965374563846, "longitude": 23.8145795528242}, "assignedPoi": {"address": "Νεαπόλεως 27, 153 41, Αγία Παρασκευή", "poiId": 34358, "poiName": "Parking Slot 9"}},
	    "33863": {"assetName": "Parking Slot 10", "assetSerial": "SNV086XH0017000A0", "assetTypeName": "parking", "assetSubTypeName": "parking", "address": "Νεαπόλεως 27, 153 41, Αγία Παρασκευή", "pointDto": {"latitude": 37.9965314757106, "longitude": 23.8145635177087}, "assignedPoi": {"address": "Νεαπόλεως 27, 153 41, Αγία Παρασκευή", "poiId": 34359, "poiName": "Parking Slot 10"}},
	    "33864": {"assetName": "Parking Slot 11", "assetSerial": "SNV086XH0017000D6", "assetTypeName": "parking", "assetSubTypeName": "parking", "address": "Νεαπόλεως 27, 153 41, Αγία Παρασκευή", "pointDto": {"latitude": 37.9965414316544, "longitude": 23.814535981605}, "assignedPoi": {"address": "Νεαπόλεως 27, 153 41, Αγία Παρασκευή", "poiId": 34360, "poiName": "Parking Slot 11"}},
	    "33865": {"assetName": "Parking Slot 12", "assetSerial": "SNV086XH0017000D7", "assetTypeName": "parking", "assetSubTypeName": "parking", "address": "Νεαπόλεως 27, 153 41, Αγία Παρασκευή", "pointDto": {"latitude": 37.996538712685, "longitude": 23.8145026450517}, "assignedPoi": {"address": "Νεαπόλεως 27, 153 41, Αγία Παρασκευή", "poiId": 34361, "poiName": "Parking Slot 12"}},
	    "33866": {"assetName": "Parking Slot 13", "assetSerial": "SNV086XH001700043", "assetTypeName": "parking", "assetSubTypeName": "parking", "address": "Νεαπόλεως 27, 153 41, Αγία Παρασκευή", "pointDto": {"latitude": 37.9965410492644, "longitude": 23.8144802642839}, "assignedPoi": {"address": "Νεαπόλεως 27, 153 41, Αγία Παρασκευή", "poiId": 34362, "poiName": "Parking Slot 13"}},
	    "33867": {"assetName": "Parking Slot 14", "assetSerial": "SNV086XH001700034", "assetTypeName": "parking", "assetSubTypeName": "parking", "address": "Νεαπόλεως 27, 153 41, Αγία Παρασκευή", "pointDto": {"latitude": 37.9965326963253, "longitude": 23.8144664122815}, "assignedPoi": {"address": "Νεαπόλεως 27, 153 41, Αγία Παρασκευή", "poiId": 34363, "poiName": "Parking Slot 14"}},
	    "33868": {"assetName": "Parking Slot 15", "assetSerial": "SNV086XH001700021", "assetTypeName": "parking", "assetSubTypeName": "parking", "address": "Νεαπόλεως 27, 153 41, Αγία Παρασκευή", "pointDto": {"latitude": 37.9965325025478, "longitude": 23.8144383991263}, "assignedPoi": {"address": "Νεαπόλεως 27, 153 41, Αγία Παρασκευή", "poiId": 34364, "poiName": "Parking Slot 15"}},
	    "33869": {"assetName": "Parking Slot 16", "assetSerial": "SNV086XH001700035", "assetTypeName": "parking", "assetSubTypeName": "parking", "address": "Νεαπόλεως 27, 153 41, Αγία Παρασκευή", "pointDto": {"latitude": 37.9965406783708, "longitude": 23.8143847337545}, "assignedPoi": {"address": "Νεαπόλεως 27, 153 41, Αγία Παρασκευή", "poiId": 34365, "poiName": "Parking Slot 16"}},
	    "33870": {"assetName": "Parking Slot 17", "assetSerial": "SNV086XH00170005D", "assetTypeName": "parking", "assetSubTypeName": "parking", "address": "Νεαπόλεως 27, 153 41, Αγία Παρασκευή", "pointDto": {"latitude": 37.996474332489, "longitude": 23.8148940674783}, "assignedPoi": {"address": "Νεαπόλεως 27, 153 41, Αγία Παρασκευή", "poiId": 34366, "poiName": "Parking Slot 17"}},
	    "33871": {"assetName": "Parking Slot 18", "assetSerial": "SNV086XH00170005F", "assetTypeName": "parking", "assetSubTypeName": "parking", "address": "Νεαπόλεως 27, 153 41, Αγία Παρασκευή", "pointDto": {"latitude": 37.9964710659849, "longitude": 23.8148454111098}, "assignedPoi": {"address": "Νεαπόλεως 27, 153 41, Αγία Παρασκευή", "poiId": 34367, "poiName": "Parking Slot 18"}},
	    "33872": {"assetName": "Parking Slot 19", "assetSerial": "SNV086XH00170005B", "assetTypeName": "parking", "assetSubTypeName": "parking", "address": "Νεαπόλεως 27, 153 41, Αγία Παρασκευή", "pointDto": {"latitude": 37.9964789395083, "longitude": 23.8148188570128}, "assignedPoi": {"address": "Νεαπόλεως 27, 153 41, Αγία Παρασκευή", "poiId": 34368, "poiName": "Parking Slot 19"}}, "33873":
	    {"assetName": "Parking Slot 20", "assetSerial": "SNV086XH001700020", "assetTypeName": "parking", "assetSubTypeName": "parking", "address": "Νεαπόλεως 27, 153 41, Αγία Παρασκευή", "pointDto": {"latitude": 37.9964835531233, "longitude": 23.814770829834}, "assignedPoi": {"address": "Νεαπόλεως 27, 153 41, Αγία Παρασκευή", "poiId": 34369, "poiName": "Parking Slot 20"}},
	    "33874": {"assetName": "Parking Slot 21", "assetSerial": "SNV086XH0017000C1", "assetTypeName": "parking", "assetSubTypeName": "parking", "address": "Νεαπόλεως 27, 153 41, Αγία Παρασκευή", "pointDto": {"latitude": 37.9964695727098, "longitude": 23.8147445820807}, "assignedPoi": {"address": "Νεαπόλεως 27, 153 41, Αγία Παρασκευή", "poiId": 34370, "poiName": "Parking Slot 21"}},
	    "33875": {"assetName": "Parking Slot 22", "assetSerial": "SNV086XH0017000D5", "assetTypeName": "parking", "assetSubTypeName": "parking", "address": "Νεαπόλεως 27, 153 41, Αγία Παρασκευή", "pointDto": {"latitude": 37.996475890835, "longitude": 23.8147042067066}, "assignedPoi": {"address": "Νεαπόλεως 27, 153 41, Αγία Παρασκευή", "poiId": 34371, "poiName": "Parking Slot 22"}},
	    "33876": {"assetName": "Parking Slot 23", "assetSerial": "SNV086XH0017000BF", "assetTypeName": "parking", "assetSubTypeName": "parking", "address": "Νεαπόλεως 27, 153 41, Αγία Παρασκευή", "pointDto": {"latitude": 37.9964765877631, "longitude": 23.8146867038123}, "assignedPoi": {"address": "Νεαπόλεως 27, 153 41, Αγία Παρασκευή", "poiId": 34372, "poiName": "Parking Slot 23"}},
	    "33877": {"assetName": "Parking Slot 24", "assetSerial": "SNV086XH001700023", "assetTypeName": "parking", "assetSubTypeName": "parking", "address": "Νεαπόλεως 27, 153 41, Αγία Παρασκευή", "pointDto": {"latitude": 37.9964694119638, "longitude": 23.814669661504}, "assignedPoi": {"address": "Νεαπόλεως 27, 153 41, Αγία Παρασκευή", "poiId": 34373, "poiName": "Parking Slot 24"}},
	    "33878": {"assetName": "Parking Slot 25", "assetSerial": "SNV086XH0017000C0", "assetTypeName": "parking", "assetSubTypeName": "parking", "address": "Νεαπόλεως 27, 153 41, Αγία Παρασκευή", "pointDto": {"latitude": 37.9964753453303, "longitude": 23.8146344037945}, "assignedPoi": {"address": "Νεαπόλεως 27, 153 41, Αγία Παρασκευή", "poiId": 34374, "poiName": "Parking Slot 25"}},
	    "33879": {"assetName": "Parking Slot 26", "assetSerial": "SNV086XH00170004A", "assetTypeName": "parking", "assetSubTypeName": "parking", "address": "Νεαπόλεως 27, 153 41, Αγία Παρασκευή", "pointDto": {"latitude": 37.9964814984517, "longitude": 23.8146187351497}, "assignedPoi": {"address": "Νεαπόλεως 27, 153 41, Αγία Παρασκευή", "poiId": 34375, "poiName": "Parking Slot 26"}},
	    "33880": {"assetName": "Parking Slot 27", "assetSerial": "SNV086XH0017000C3", "assetTypeName": "parking", "assetSubTypeName": "parking", "address": "Νεαπόλεως 27, 153 41, Αγία Παρασκευή", "pointDto": {"latitude": 37.9964816058602, "longitude": 23.8145920258374}, "assignedPoi": {"address": "Νεαπόλεως 27, 153 41, Αγία Παρασκευή", "poiId": 34376, "poiName": "Parking Slot 27"}},
	    "33881": {"assetName": "Parking Slot 28", "assetSerial": "SNV086XH0017000A7", "assetTypeName": "parking", "assetSubTypeName": "parking", "address": "Νεαπόλεως 27, 153 41, Αγία Παρασκευή", "pointDto": {"latitude": 37.9964702761633, "longitude": 23.8145718121733}, "assignedPoi": {"address": "Νεαπόλεως 27, 153 41, Αγία Παρασκευή", "poiId": 34377, "poiName": "Parking Slot 28"}},
	    "33882": {"assetName": "Parking Slot 29", "assetSerial": "SNV086XH00170000D", "assetTypeName": "parking", "assetSubTypeName": "parking", "address": "Νεαπόλεως 27, 153 41, Αγία Παρασκευή", "pointDto": {"latitude": 37.9964658591151, "longitude": 23.8145341618995}, "assignedPoi": {"address": "Νεαπόλεως 27, 153 41, Αγία Παρασκευή", "poiId": 34378, "poiName": "Parking Slot 29"}},
	    "33883": {"assetName": "Parking Slot 30", "assetSerial": "SNV086XH001700033", "assetTypeName": "parking", "assetSubTypeName": "parking", "address": "Νεαπόλεως 27, 153 41, Αγία Παρασκευή", "pointDto": {"latitude": 37.9964697758418, "longitude": 23.8145133118391}, "assignedPoi": {"address": "Νεαπόλεως 27, 153 41, Αγία Παρασκευή", "poiId": 34379, "poiName": "Parking Slot 30"}},
	    "33884": {"assetName": "Parking Slot 31", "assetSerial": "SNV086XH00170005E", "assetTypeName": "parking", "assetSubTypeName": "parking", "address": "Νεαπόλεως 27, 153 41, Αγία Παρασκευή", "pointDto": {"latitude": 37.996468358241, "longitude": 23.8144709315843}, "assignedPoi": {"address": "Νεαπόλεως 27, 153 41, Αγία Παρασκευή", "poiId": 34380, "poiName": "Parking Slot 31"}},
	    "33885": {"assetName": "Parking Slot 32", "assetSerial": "SNV086XH001700022", "assetTypeName": "parking", "assetSubTypeName": "parking", "address": "Νεαπόλεως 27, 153 41, Αγία Παρασκευή", "pointDto": {"latitude": 37.9964796463831, "longitude": 23.8144089042759}, "assignedPoi": {"address": "Νεαπόλεως 27, 153 41, Αγία Παρασκευή", "poiId": 34381, "poiName": "Parking Slot 32"}}},
    },
}
